<svg width="61" height="58" viewBox="0 0 61 58" fill="none" xmlns="http://www.w3.org/2000/svg">
<path opacity="0.1" d="M20.76 57.96C17.08 57.96 13.7467 57.32 10.76 56.04C7.77333 54.7067 5.37333 52.68 3.56 49.96C1.74667 47.24 0.786667 43.8267 0.68 39.72H10.76C10.8133 42.44 11.6933 44.7333 13.4 46.6C15.16 48.4133 17.6133 49.32 20.76 49.32C23.7467 49.32 26.04 48.4933 27.64 46.84C29.24 45.1867 30.04 43.1067 30.04 40.6C30.04 37.6667 28.9733 35.4533 26.84 33.96C24.76 32.4133 22.0667 31.64 18.76 31.64H14.6V23.24H18.84C21.56 23.24 23.8267 22.6 25.64 21.32C27.4533 20.04 28.36 18.1467 28.36 15.64C28.36 13.56 27.6667 11.9067 26.28 10.68C24.9467 9.4 23.08 8.76 20.68 8.76C18.0667 8.76 16.0133 9.53333 14.52 11.08C13.08 12.6267 12.28 14.52 12.12 16.76H2.12C2.33333 11.5867 4.12 7.50666 7.48 4.52C10.8933 1.53333 15.2933 0.039999 20.68 0.039999C24.52 0.039999 27.7467 0.733331 30.36 2.12C33.0267 3.45333 35.0267 5.24 36.36 7.48C37.7467 9.72 38.44 12.2 38.44 14.92C38.44 18.0667 37.56 20.7333 35.8 22.92C34.0933 25.0533 31.96 26.4933 29.4 27.24C32.5467 27.88 35.1067 29.4267 37.08 31.88C39.0533 34.28 40.04 37.32 40.04 41C40.04 44.0933 39.2933 46.92 37.8 49.48C36.3067 52.04 34.12 54.0933 31.24 55.64C28.4133 57.1867 24.92 57.96 20.76 57.96ZM54.2563 57.56C52.3896 57.56 50.8429 56.9733 49.6163 55.8C48.4429 54.6267 47.8563 53.2133 47.8563 51.56C47.8563 49.8533 48.4429 48.4133 49.6163 47.24C50.8429 46.0667 52.3896 45.48 54.2563 45.48C56.1229 45.48 57.6429 46.0667 58.8163 47.24C60.0429 48.4133 60.6563 49.8533 60.6563 51.56C60.6563 53.2133 60.0429 54.6267 58.8163 55.8C57.6429 56.9733 56.1229 57.56 54.2563 57.56Z" fill="#24416B"/>
</svg>
