<svg width="61" height="57" viewBox="0 0 61 57" fill="none" xmlns="http://www.w3.org/2000/svg">
<path opacity="0.1" d="M20.52 56.96C16.4133 56.96 12.8667 56.24 9.88 54.8C6.94667 53.36 4.62667 51.3867 2.92 48.88C1.26667 46.32 0.306667 43.44 0.0400001 40.24H10.04C10.52 42.5333 11.6933 44.4533 13.56 46C15.4267 47.4933 17.7467 48.24 20.52 48.24C23.5067 48.24 25.9333 47.1467 27.8 44.96C29.72 42.7733 30.68 40.0533 30.68 36.8C30.68 33.44 29.72 30.7733 27.8 28.8C25.9333 26.8267 23.56 25.84 20.68 25.84C18.28 25.84 16.2 26.4267 14.44 27.6C12.68 28.7733 11.4267 30.24 10.68 32H0.840001L5.64 -3.8147e-06H36.68V8.96H13.32L10.76 21.92C11.9333 20.64 13.5333 19.6 15.56 18.8C17.5867 17.9467 19.8533 17.52 22.36 17.52C26.36 17.52 29.6933 18.4267 32.36 20.24C35.0267 22 37.0533 24.3467 38.44 27.28C39.8267 30.16 40.52 33.3067 40.52 36.72C40.52 40.6133 39.6667 44.08 37.96 47.12C36.3067 50.16 33.96 52.56 30.92 54.32C27.9333 56.08 24.4667 56.96 20.52 56.96ZM54.2094 56.56C52.3427 56.56 50.796 55.9733 49.5694 54.8C48.396 53.6267 47.8094 52.2133 47.8094 50.56C47.8094 48.8533 48.396 47.4133 49.5694 46.24C50.796 45.0667 52.3427 44.48 54.2094 44.48C56.076 44.48 57.596 45.0667 58.7694 46.24C59.996 47.4133 60.6094 48.8533 60.6094 50.56C60.6094 52.2133 59.996 53.6267 58.7694 54.8C57.596 55.9733 56.076 56.56 54.2094 56.56Z" fill="#24416B"/>
</svg>
