<svg width="8" height="14" viewBox="0 0 8 14" fill="none" xmlns="http://www.w3.org/2000/svg">
<path d="M5.172 7.00001L0.222001 2.05001L1.636 0.636012L8 7.00001L1.636 13.364L0.222 11.95L5.172 7.00001Z" fill="#555555"/>
</svg>
