<svg width="88" height="77" viewBox="0 0 88 77" fill="none" xmlns="http://www.w3.org/2000/svg">
<g filter="url(#filter0_d)">
<path d="M63.7 40.2H86.4V17.2H77.8C77.8 12.1 81 9.1 87.5 8.3L85.7 0C72.6 0.5 63.7 6.1 63.7 21.9V40.2ZM36 40.2H58.7V17.2H50.1C50.1 12.1 53.3 9.1 59.8 8.3L58 0C44.9 0.5 36 6.1 36 21.9V40.2Z" fill="#0075F8"/>
</g>
<defs>
<filter id="filter0_d" x="0" y="0" width="87.5" height="76.2" filterUnits="userSpaceOnUse" color-interpolation-filters="sRGB">
<feFlood flood-opacity="0" result="BackgroundImageFix"/>
<feColorMatrix in="SourceAlpha" type="matrix" values="0 0 0 0 0 0 0 0 0 0 0 0 0 0 0 0 0 0 127 0" result="hardAlpha"/>
<feOffset dx="-20" dy="20"/>
<feGaussianBlur stdDeviation="8"/>
<feComposite in2="hardAlpha" operator="out"/>
<feColorMatrix type="matrix" values="0 0 0 0 0 0 0 0 0 0.458824 0 0 0 0 0.972549 0 0 0 0.46 0"/>
<feBlend mode="normal" in2="BackgroundImageFix" result="effect1_dropShadow"/>
<feBlend mode="normal" in="SourceGraphic" in2="effect1_dropShadow" result="shape"/>
</filter>
</defs>
</svg>
